{
	/*
	 * Simple use case which creates 10% load
	 * until the use case is stopped with Ctrl+C
	 */
	"tasks" : {
		"thread0" : {
			"instance" : 1,
			"loop" : -1,
			"run" :   10000,
			"timer" : { "ref" : "unique", "period" : 100000 }
		},
		"thread1" : {
			"instance" : 1,
			"loop" : -1,
			"run" :   70000,
			"timer" : { "ref" : "unique", "period" : 100000 }
		}
	},
	"global" : {
		"duration" : 140,
		"calibration" : "CPU0",
		"default_policy" : "SCHED_RR",
		"pi_enabled" : false,
		"lock_pages" : false,
		"logdir" : "./rr",
		"log_basename" : "rr",
		"ftrace" : false,
		"gnuplot" : true
	}
}
